{
  "pageName":"LoginPage",
  "title":"MediRecords - Login",
  "urlExtension": "/login",
  "domElements" :
  {
    "username":
    {
      "id":"scr-reg-00-user-name"
    },
    "email":
    {
      "id":"scr-reg-00-email"
    },
    "password":
    {
      "id":"scr-reg-00-password"
    },
    "loginButton":
    {
      "id":"scr-reg-00-submit-login"
    },
    "usernameAlert":
    {
      "cssSelector":".k-invalid-msg[data-for='User Name']"
    },
    "emailAlert":
    {
      "cssSelector":".k-invalid-msg[data-for='Email']"
    },
    "passwordAlert":
    {
      "cssSelector":".k-invalid-msg[data-for='Password']"
    },
    "registerButton":
    {
      "id" : "scr-reg-00-Register"
    }
  }
}
