{
  "pageName":"LoginPage",
  "title":"JSS Administration",
  "urlExtension": "/login.seam",
  "domElements" :
  {
    "username":
    {
      "id":"loginForm:username"
    },
    "password":
    {
      "id":"loginForm:password"
    },
    "loginButton":
    {
      "id":"loginForm:submit"
    },
    "invalidLogonCredentialMessage":
    {
      "cssSelector":"li.infomsg"
    }
  }
}